INDEX VERSION 1.130+D:\FULL Stack\FSD-3\fsd62\Module4\SpringBoot\EmpDeptWorkSpace\.metadata\.plugins\org.eclipse.jdt.core
2580635370.index
2507423472.index
4270469659.index
3517149143.index
4170523466.index
921887901.index
123584226.index
499945055.index
2316748540.index
4140450620.index
1773299222.index
2885606711.index
3890320873.index
1946725198.index
24706966.index
2871256957.index
3040837599.index
491177420.index
1280087244.index
3900858662.index
3254441025.index
989106016.index
1963860251.index
800967624.index
228954726.index
3447007033.index
2291292509.index
2205283528.index
2067900551.index
1632582894.index
1588775114.index
78426365.index
216414703.index
3416123025.index
1690238680.index
848873475.index
2402500919.index
3571656440.index
775237409.index
2875587559.index
3949912572.index
873101105.index
505255175.index
895354549.index
2038927097.index
3900538879.index
2787397769.index
836113788.index
704796113.index
2166127063.index
3520340836.index
3684809349.index
411227453.index
3749394618.index
3921388149.index
2414184080.index
4259073463.index
2522409616.index
1785209039.index
1915943783.index
1520841752.index
4135958314.index
97184057.index
1895615326.index
3111260459.index
4138326577.index
675519633.index
784501778.index
1284360941.index
1927222866.index
4071578531.index
1453057710.index
2350050039.index
786825657.index
542153213.index
2893138928.index
4165513728.index
3644761064.index
650142225.index
730972433.index
1183625808.index
674573568.index
103378668.index
4009392193.index
1956904976.index
3348520720.index
3504640765.index
4129400790.index
1922775324.index
4261394307.index
205363007.index
2026082527.index
2021825170.index
4047978024.index
2066830214.index
3522899649.index
2582443105.index
3619779479.index
1961815414.index
2686419480.index
1521478801.index
3847871149.index
2164814777.index
