127.0.0.1 - - [28/Mar/2024:11:19:01 +0530] "GET / HTTP/1.1" 404 752
0:0:0:0:0:0:0:1 - - [28/Mar/2024:11:19:02 +0530] "GET /ServletDemo1/Hi.html HTTP/1.1" 200 140
0:0:0:0:0:0:0:1 - - [28/Mar/2024:11:31:47 +0530] "GET /ServletDemo1/Hi.html HTTP/1.1" 304 -
0:0:0:0:0:0:0:1 - - [28/Mar/2024:11:50:20 +0530] "GET /ServletDemo1/Hi.html HTTP/1.1" 200 125
0:0:0:0:0:0:0:1 - - [28/Mar/2024:11:50:22 +0530] "GET /ServletDemo1/Hi.html HTTP/1.1" 304 -
0:0:0:0:0:0:0:1 - - [28/Mar/2024:11:50:24 +0530] "GET /ServletDemo1/Hi.html HTTP/1.1" 304 -
0:0:0:0:0:0:0:1 - - [28/Mar/2024:11:50:43 +0530] "GET /ServletDemo1/Hi.html HTTP/1.1" 304 -
0:0:0:0:0:0:0:1 - - [28/Mar/2024:11:50:45 +0530] "GET /ServletDemo1/Hi.html HTTP/1.1" 304 -
0:0:0:0:0:0:0:1 - - [28/Mar/2024:11:50:59 +0530] "GET /ServletDemo1/Hi.html HTTP/1.1" 200 142
0:0:0:0:0:0:0:1 - - [28/Mar/2024:11:54:48 +0530] "GET /ServletDemo1/Hi.html HTTP/1.1" 200 125
0:0:0:0:0:0:0:1 - - [28/Mar/2024:11:54:49 +0530] "GET /ServletDemo1/Hi.html HTTP/1.1" 304 -
0:0:0:0:0:0:0:1 - - [28/Mar/2024:11:54:52 +0530] "GET /ServletDemo1/Hi.html HTTP/1.1" 304 -
0:0:0:0:0:0:0:1 - - [28/Mar/2024:11:55:04 +0530] "GET /ServletDemo1/Hi.html HTTP/1.1" 304 -
127.0.0.1 - - [28/Mar/2024:12:03:28 +0530] "GET / HTTP/1.1" 404 752
0:0:0:0:0:0:0:1 - - [28/Mar/2024:12:03:29 +0530] "GET /ServletDemo1/Hi.html HTTP/1.1" 200 169
0:0:0:0:0:0:0:1 - - [28/Mar/2024:12:04:13 +0530] "GET /ServletDemo1/Hi.html HTTP/1.1" 200 160
0:0:0:0:0:0:0:1 - - [28/Mar/2024:12:04:15 +0530] "GET /ServletDemo1/HiServlent HTTP/1.1" 200 -
0:0:0:0:0:0:0:1 - - [28/Mar/2024:12:06:25 +0530] "GET /ServletDemo1/HiServlent HTTP/1.1" 200 -
0:0:0:0:0:0:0:1 - - [28/Mar/2024:12:06:26 +0530] "GET /ServletDemo1/HiServlent HTTP/1.1" 200 -
0:0:0:0:0:0:0:1 - - [28/Mar/2024:12:06:32 +0530] "GET /ServletDemo1 HTTP/1.1" 302 -
0:0:0:0:0:0:0:1 - - [28/Mar/2024:12:06:33 +0530] "GET /ServletDemo1/ HTTP/1.1" 404 769
127.0.0.1 - - [28/Mar/2024:12:08:20 +0530] "GET / HTTP/1.1" 404 752
0:0:0:0:0:0:0:1 - - [28/Mar/2024:12:08:21 +0530] "GET /ServletDemo1/Hi.html HTTP/1.1" 304 -
0:0:0:0:0:0:0:1 - - [28/Mar/2024:12:08:23 +0530] "GET /ServletDemo1/HiServlent HTTP/1.1" 200 -
0:0:0:0:0:0:0:1 - - [28/Mar/2024:12:11:53 +0530] "GET /ServletDemo1/Hi.html HTTP/1.1" 304 -
0:0:0:0:0:0:0:1 - - [28/Mar/2024:12:14:58 +0530] "GET /ServletDemo1/Hi.html HTTP/1.1" 200 163
0:0:0:0:0:0:0:1 - - [28/Mar/2024:12:15:17 +0530] "GET /ServletDemo1/Hi.html HTTP/1.1" 200 166
0:0:0:0:0:0:0:1 - - [28/Mar/2024:12:16:29 +0530] "GET /ServletDemo1/Hi.html HTTP/1.1" 200 208
0:0:0:0:0:0:0:1 - - [28/Mar/2024:12:16:30 +0530] "GET /ServletDemo1/HelloServlent HTTP/1.1" 404 782
127.0.0.1 - - [28/Mar/2024:12:19:33 +0530] "GET / HTTP/1.1" 404 752
0:0:0:0:0:0:0:1 - - [28/Mar/2024:12:19:34 +0530] "GET /ServletDemo1/Hi.html HTTP/1.1" 200 213
0:0:0:0:0:0:0:1 - - [28/Mar/2024:12:19:49 +0530] "GET /ServletDemo1/HiServlent HTTP/1.1" 200 -
0:0:0:0:0:0:0:1 - - [28/Mar/2024:12:19:58 +0530] "GET /ServletDemo1/HelloServlent HTTP/1.1" 404 782
0:0:0:0:0:0:0:1 - - [28/Mar/2024:12:20:21 +0530] "GET /ServletDemo1/Hi.html HTTP/1.1" 200 212
0:0:0:0:0:0:0:1 - - [28/Mar/2024:12:20:22 +0530] "GET /ServletDemo1/HelloServlet HTTP/1.1" 200 -
0:0:0:0:0:0:0:1 - - [28/Mar/2024:12:20:31 +0530] "GET /ServletDemo1/Hi.html HTTP/1.1" 304 -
0:0:0:0:0:0:0:1 - - [28/Mar/2024:12:20:33 +0530] "GET /ServletDemo1/HiServlent HTTP/1.1" 200 -
0:0:0:0:0:0:0:1 - - [28/Mar/2024:12:20:51 +0530] "GET /ServletDemo1/HiServlent HTTP/1.1" 200 -
0:0:0:0:0:0:0:1 - - [28/Mar/2024:12:20:55 +0530] "GET /ServletDemo1/HelloServlet HTTP/1.1" 200 -
0:0:0:0:0:0:0:1 - - [28/Mar/2024:12:21:03 +0530] "GET /ServletDemo1/HiServlent HTTP/1.1" 200 -
127.0.0.1 - - [28/Mar/2024:12:25:15 +0530] "GET / HTTP/1.1" 404 752
0:0:0:0:0:0:0:1 - - [28/Mar/2024:12:25:16 +0530] "GET /ServletDemo1/Hi.html HTTP/1.1" 304 -
0:0:0:0:0:0:0:1 - - [28/Mar/2024:12:25:19 +0530] "GET /ServletDemo1/HiServlent HTTP/1.1" 200 -
0:0:0:0:0:0:0:1 - - [28/Mar/2024:12:25:25 +0530] "GET /ServletDemo1/HiServlent HTTP/1.1" 200 -
0:0:0:0:0:0:0:1 - - [28/Mar/2024:12:25:30 +0530] "GET /ServletDemo1/HelloServlet HTTP/1.1" 200 -
0:0:0:0:0:0:0:1 - - [28/Mar/2024:12:25:34 +0530] "GET /ServletDemo1/HiServlent HTTP/1.1" 200 -
