INDEX VERSION 1.3+D:\FULL Stack\FSD-3\fsd62\Module3\StudentWebAppWorkspace\.metadata\.plugins\org.eclipse.wst.jsdt.core\indexes
1025747497.index
2990821904.index
381813562.index
3884431724.index
211159653.index
3397872090.index
3914616433.index
