127.0.0.1 - - [22/Apr/2024:09:56:22 +0530] "GET / HTTP/1.1" 404 752
0:0:0:0:0:0:0:1 - - [22/Apr/2024:09:56:23 +0530] "GET /EmpWebApp/Login.jsp HTTP/1.1" 200 558
0:0:0:0:0:0:0:1 - - [22/Apr/2024:09:56:45 +0530] "GET /EmpWebApp/Register.jsp HTTP/1.1" 200 1085
0:0:0:0:0:0:0:1 - - [22/Apr/2024:09:57:19 +0530] "POST /EmpWebApp/RegisterServlet HTTP/1.1" 500 100
0:0:0:0:0:0:0:1 - - [22/Apr/2024:09:57:27 +0530] "GET /EmpWebApp/Login.jsp HTTP/1.1" 200 558
0:0:0:0:0:0:0:1 - - [22/Apr/2024:09:57:36 +0530] "POST /EmpWebApp/LoginServlet HTTP/1.1" 200 577
0:0:0:0:0:0:0:1 - - [22/Apr/2024:10:30:32 +0530] "GET /EmpWebApp/Logout HTTP/1.1" 500 1071
0:0:0:0:0:0:0:1 - - [22/Apr/2024:10:30:36 +0530] "GET /EmpWebApp/Logout HTTP/1.1" 500 1071
0:0:0:0:0:0:0:1 - - [22/Apr/2024:10:30:42 +0530] "GET /EmpWebApp/Profile.jsp HTTP/1.1" 200 1145
0:0:0:0:0:0:0:1 - - [22/Apr/2024:10:30:46 +0530] "GET /EmpWebApp/Logout HTTP/1.1" 200 558
0:0:0:0:0:0:0:1 - - [22/Apr/2024:10:30:59 +0530] "POST /EmpWebApp/LoginServlet HTTP/1.1" 200 648
0:0:0:0:0:0:0:1 - - [22/Apr/2024:10:31:04 +0530] "GET /EmpWebApp/GetAllEmployees HTTP/1.1" 200 2136
0:0:0:0:0:0:0:1 - - [22/Apr/2024:10:31:08 +0530] "GET /EmpWebApp/GetEmpById.jsp HTTP/1.1" 200 1196
0:0:0:0:0:0:0:1 - - [22/Apr/2024:10:31:13 +0530] "POST /EmpWebApp/GetEmpById HTTP/1.1" 200 1234
0:0:0:0:0:0:0:1 - - [22/Apr/2024:10:34:25 +0530] "GET /EmpWebApp/Logout HTTP/1.1" 200 558
0:0:0:0:0:0:0:1 - - [22/Apr/2024:10:34:28 +0530] "GET /EmpWebApp/Register.jsp HTTP/1.1" 200 1085
0:0:0:0:0:0:0:1 - - [22/Apr/2024:10:34:39 +0530] "POST /EmpWebApp/LoginServlet HTTP/1.1" 200 678
127.0.0.1 - - [22/Apr/2024:11:12:19 +0530] "GET / HTTP/1.1" 404 752
0:0:0:0:0:0:0:1 - - [22/Apr/2024:11:12:20 +0530] "GET /EmpWebApp/Login.jsp HTTP/1.1" 200 558
0:0:0:0:0:0:0:1 - - [22/Apr/2024:11:12:26 +0530] "POST /EmpWebApp/LoginServlet HTTP/1.1" 200 648
0:0:0:0:0:0:0:1 - - [22/Apr/2024:11:12:30 +0530] "GET /EmpWebApp/GetAllEmployees HTTP/1.1" 200 3376
0:0:0:0:0:0:0:1 - - [22/Apr/2024:11:12:33 +0530] "GET /EmpWebApp/EditEmp?empId=107 HTTP/1.1" 200 1983
0:0:0:0:0:0:0:1 - - [22/Apr/2024:11:14:58 +0530] "POST /EmpWebApp/UpdateEmp HTTP/1.1" 200 3382
0:0:0:0:0:0:0:1 - - [22/Apr/2024:11:15:05 +0530] "GET /EmpWebApp/DeleteEmp?empId=107 HTTP/1.1" 200 3061
0:0:0:0:0:0:0:1 - - [22/Apr/2024:11:15:21 +0530] "GET /EmpWebApp/GetEmpById.jsp HTTP/1.1" 200 1196
0:0:0:0:0:0:0:1 - - [22/Apr/2024:11:15:25 +0530] "GET /EmpWebApp/Logout HTTP/1.1" 200 558
0:0:0:0:0:0:0:1 - - [22/Apr/2024:11:22:23 +0530] "GET /EmpWebApp/Register.jsp HTTP/1.1" 200 1085
0:0:0:0:0:0:0:1 - - [22/Apr/2024:11:22:35 +0530] "POST /EmpWebApp/RegisterServlet HTTP/1.1" 500 100
0:0:0:0:0:0:0:1 - - [22/Apr/2024:11:22:51 +0530] "POST /EmpWebApp/RegisterServlet HTTP/1.1" 500 115
